#  mul sub KE xyz dir  user disk49
#--------------------------------
   6 -1  0   1000.000    0.001  0.001  0.001   0.000000000000000  -0.000144999999492   0.999999989487500          1
   6 -1  0   1000.000    0.001  0.001  0.001   0.000000000000000  -0.000144999999492  -0.999999989487500          2

   6 -1  0   1000.000    0.001  0.001  0.001   0.000000000000000  -0.000144999999492   0.999999989487500        101
   6 -1  0   1000.000    0.001  0.001  0.001   0.000000000000000  -0.000144999999492  -0.999999989487500        102

   6 -1  0   1000.000    0.001  0.001  0.001   0.000000000000000  -0.000144999999492   0.999999989487500        201
   6 -1  0   1000.000    0.001  0.001  0.001   0.000000000000000  -0.000144999999492  -0.999999989487500        202

   6 -1  0   1000.000    0.001  0.001  0.001   0.000000000000000  -0.000144999999492   0.999999989487500        301
   6 -1  0   1000.000    0.001  0.001  0.001   0.000000000000000  -0.000144999999492  -0.999999989487500        302

   6 -1  0   1000.000    0.001  0.001  0.001   0.000000000000000  -0.000144999999492   0.999999989487500        401
   6 -1  0   1000.000    0.001  0.001  0.001   0.000000000000000  -0.000144999999492  -0.999999989487500        402

   6 -1  0   1000.000    0.001  0.001  0.001   0.000000000000000  -0.000144999999492   0.999999989487500        501
   6 -1  0   1000.000    0.001  0.001  0.001   0.000000000000000  -0.000144999999492  -0.999999989487500        502

   6 -1  0   1000.000    0.001  0.001  0.001   0.000000000000000  -0.000144999999492   0.999999989487500        601
   6 -1  0   1000.000    0.001  0.001  0.001   0.000000000000000  -0.000144999999492  -0.999999989487500        602

   6 -1  0   1000.000    0.001  0.001  0.001   0.000000000000000  -0.000144999999492   0.999999989487500        701
   6 -1  0   1000.000    0.001  0.001  0.001   0.000000000000000  -0.000144999999492  -0.999999989487500        702

   6 -1  0   1000.000    0.001  0.001  0.001   0.000000000000000  -0.000144999999492   0.999999989487500        801
   6 -1  0   1000.000    0.001  0.001  0.001   0.000000000000000  -0.000144999999492  -0.999999989487500        802

   6 -1  0   1000.000    0.001  0.001  0.001   0.000000000000000  -0.000144999999492   0.999999989487500        901
   6 -1  0   1000.000    0.001  0.001  0.001   0.000000000000000  -0.000144999999492  -0.999999989487500        902

   6 -1  0   1000.000    0.001  0.001  0.001   0.000000000000000  -0.000144999999492   0.999999989487500       1001
   6 -1  0   1000.000    0.001  0.001  0.001   0.000000000000000  -0.000144999999492  -0.999999989487500       1002

   6 -1  0   1000.000    0.001  0.001  0.001   0.000000000000000  -0.000144999999492   0.999999989487500       1101
   6 -1  0   1000.000    0.001  0.001  0.001   0.000000000000000  -0.000144999999492  -0.999999989487500       1102

   6 -1  0   1000.000    0.001  0.001  0.001   0.000000000000000  -0.000144999999492   0.999999989487500       1201
   6 -1  0   1000.000    0.001  0.001  0.001   0.000000000000000  -0.000144999999492  -0.999999989487500       1202

   6 -1  0   1000.000    0.001  0.001  0.001   0.000000000000000  -0.000144999999492   0.999999989487500       1301
   6 -1  0   1000.000    0.001  0.001  0.001   0.000000000000000  -0.000144999999492  -0.999999989487500       1302

   6 -1  0   1000.000    0.001  0.001  0.001   0.000000000000000  -0.000144999999492   0.999999989487500       1401
   6 -1  0   1000.000    0.001  0.001  0.001   0.000000000000000  -0.000144999999492  -0.999999989487500       1402

   6 -1  0   1000.000    0.001  0.001  0.001   0.000000000000000  -0.000144999999492   0.999999989487500       1501
   6 -1  0   1000.000    0.001  0.001  0.001   0.000000000000000  -0.000144999999492  -0.999999989487500       1502

   6 -1  0   1000.000    0.001  0.001  0.001   0.000000000000000  -0.000144999999492   0.999999989487500       1601
   6 -1  0   1000.000    0.001  0.001  0.001   0.000000000000000  -0.000144999999492  -0.999999989487500       1602

   6 -1  0   1000.000    0.001  0.001  0.001   0.000000000000000  -0.000144999999492   0.999999989487500       1701
   6 -1  0   1000.000    0.001  0.001  0.001   0.000000000000000  -0.000144999999492  -0.999999989487500       1702

   6 -1  0   1000.000    0.001  0.001  0.001   0.000000000000000  -0.000144999999492   0.999999989487500       1801
   6 -1  0   1000.000    0.001  0.001  0.001   0.000000000000000  -0.000144999999492  -0.999999989487500       1802

   6 -1  0   1000.000    0.001  0.001  0.001   0.000000000000000  -0.000144999999492   0.999999989487500       1901
   6 -1  0   1000.000    0.001  0.001  0.001   0.000000000000000  -0.000144999999492  -0.999999989487500       1902

   6 -1  0   1000.000    0.001  0.001  0.001   0.000000000000000  -0.000144999999492   0.999999989487500       2001
   6 -1  0   1000.000    0.001  0.001  0.001   0.000000000000000  -0.000144999999492  -0.999999989487500       2002

   6 -1  0   1000.000    0.001  0.001  0.001   0.000000000000000  -0.000144999999492   0.999999989487500       2101
   6 -1  0   1000.000    0.001  0.001  0.001   0.000000000000000  -0.000144999999492  -0.999999989487500       2102

   6 -1  0   1000.000    0.001  0.001  0.001   0.000000000000000  -0.000144999999492   0.999999989487500       2201
   6 -1  0   1000.000    0.001  0.001  0.001   0.000000000000000  -0.000144999999492  -0.999999989487500       2202

   6 -1  0   1000.000    0.001  0.001  0.001   0.000000000000000  -0.000144999999492   0.999999989487500       2301
   6 -1  0   1000.000    0.001  0.001  0.001   0.000000000000000  -0.000144999999492  -0.999999989487500       2302

   6 -1  0   1000.000    0.001  0.001  0.001   0.000000000000000  -0.000144999999492   0.999999989487500       2401
   6 -1  0   1000.000    0.001  0.001  0.001   0.000000000000000  -0.000144999999492  -0.999999989487500       2402

   6 -1  0   1000.000    0.001  0.001  0.001   0.000000000000000  -0.000144999999492   0.999999989487500       2501
   6 -1  0   1000.000    0.001  0.001  0.001   0.000000000000000  -0.000144999999492  -0.999999989487500       2502

   6 -1  0   1000.000    0.001  0.001  0.001   0.000000000000000  -0.000144999999492   0.999999989487500       2601
   6 -1  0   1000.000    0.001  0.001  0.001   0.000000000000000  -0.000144999999492  -0.999999989487500       2602

   6 -1  0   1000.000    0.001  0.001  0.001   0.000000000000000  -0.000144999999492   0.999999989487500       2701
   6 -1  0   1000.000    0.001  0.001  0.001   0.000000000000000  -0.000144999999492  -0.999999989487500       2702

   6 -1  0   1000.000    0.001  0.001  0.001   0.000000000000000  -0.000144999999492   0.999999989487500       2801
   6 -1  0   1000.000    0.001  0.001  0.001   0.000000000000000  -0.000144999999492  -0.999999989487500       2802

   6 -1  0   1000.000    0.001  0.001  0.001   0.000000000000000  -0.000144999999492   0.999999989487500       2901
   6 -1  0   1000.000    0.001  0.001  0.001   0.000000000000000  -0.000144999999492  -0.999999989487500       2902

   6 -1  0   1000.000    0.001  0.001  0.001   0.000000000000000  -0.000144999999492   0.999999989487500       3001
   6 -1  0   1000.000    0.001  0.001  0.001   0.000000000000000  -0.000144999999492  -0.999999989487500       3002

   6 -1  0   1000.000    0.001  0.001  0.001   0.000000000000000  -0.000144999999492   0.999999989487500       3101
   6 -1  0   1000.000    0.001  0.001  0.001   0.000000000000000  -0.000144999999492  -0.999999989487500       3102

   6 -1  0   1000.000    0.001  0.001  0.001   0.000000000000000  -0.000144999999492   0.999999989487500       3201
   6 -1  0   1000.000    0.001  0.001  0.001   0.000000000000000  -0.000144999999492  -0.999999989487500       3202

   6 -1  0   1000.000    0.001  0.001  0.001   0.000000000000000  -0.000144999999492   0.999999989487500       3301
   6 -1  0   1000.000    0.001  0.001  0.001   0.000000000000000  -0.000144999999492  -0.999999989487500       3302

   6 -1  0   1000.000    0.001  0.001  0.001   0.000000000000000  -0.000144999999492   0.999999989487500       3401
   6 -1  0   1000.000    0.001  0.001  0.001   0.000000000000000  -0.000144999999492  -0.999999989487500       3402

   6 -1  0   1000.000    0.001  0.001  0.001   0.000000000000000  -0.000144999999492   0.999999989487500       3501
   6 -1  0   1000.000    0.001  0.001  0.001   0.000000000000000  -0.000144999999492  -0.999999989487500       3502

   6 -1  0   1000.000    0.001  0.001  0.001   0.000000000000000  -0.000144999999492   0.999999989487500       3601
   6 -1  0   1000.000    0.001  0.001  0.001   0.000000000000000  -0.000144999999492  -0.999999989487500       3602

   6 -1  0   1000.000    0.001  0.001  0.001   0.000000000000000  -0.000144999999492   0.999999989487500       3701
   6 -1  0   1000.000    0.001  0.001  0.001   0.000000000000000  -0.000144999999492  -0.999999989487500       3702

   6 -1  0   1000.000    0.001  0.001  0.001   0.000000000000000  -0.000144999999492   0.999999989487500       3801
   6 -1  0   1000.000    0.001  0.001  0.001   0.000000000000000  -0.000144999999492  -0.999999989487500       3802

   6 -1  0   1000.000    0.001  0.001  0.001   0.000000000000000  -0.000144999999492   0.999999989487500       3901
   6 -1  0   1000.000    0.001  0.001  0.001   0.000000000000000  -0.000144999999492  -0.999999989487500       3902

   6 -1  0   1000.000    0.001  0.001  0.001   0.000000000000000  -0.000144999999492   0.999999989487500       4001
   6 -1  0   1000.000    0.001  0.001  0.001   0.000000000000000  -0.000144999999492  -0.999999989487500       4002

   6 -1  0   1000.000    0.001  0.001  0.001   0.000000000000000  -0.000144999999492   0.999999989487500       4101
   6 -1  0   1000.000    0.001  0.001  0.001   0.000000000000000  -0.000144999999492  -0.999999989487500       4102

   6 -1  0   1000.000    0.001  0.001  0.001   0.000000000000000  -0.000144999999492   0.999999989487500       4201
   6 -1  0   1000.000    0.001  0.001  0.001   0.000000000000000  -0.000144999999492  -0.999999989487500       4202

   6 -1  0   1000.000    0.001  0.001  0.001   0.000000000000000  -0.000144999999492   0.999999989487500       4301
   6 -1  0   1000.000    0.001  0.001  0.001   0.000000000000000  -0.000144999999492  -0.999999989487500       4302

   6 -1  0   1000.000    0.001  0.001  0.001   0.000000000000000  -0.000144999999492   0.999999989487500       4401
   6 -1  0   1000.000    0.001  0.001  0.001   0.000000000000000  -0.000144999999492  -0.999999989487500       4402

   6 -1  0   1000.000    0.001  0.001  0.001   0.000000000000000  -0.000144999999492   0.999999989487500       4501
   6 -1  0   1000.000    0.001  0.001  0.001   0.000000000000000  -0.000144999999492  -0.999999989487500       4502

   6 -1  0   1000.000    0.001  0.001  0.001   0.000000000000000  -0.000144999999492   0.999999989487500       4601
   6 -1  0   1000.000    0.001  0.001  0.001   0.000000000000000  -0.000144999999492  -0.999999989487500       4602

   6 -1  0   1000.000    0.001  0.001  0.001   0.000000000000000  -0.000144999999492   0.999999989487500       4701
   6 -1  0   1000.000    0.001  0.001  0.001   0.000000000000000  -0.000144999999492  -0.999999989487500       4702

   6 -1  0   1000.000    0.001  0.001  0.001   0.000000000000000  -0.000144999999492   0.999999989487500       4801
   6 -1  0   1000.000    0.001  0.001  0.001   0.000000000000000  -0.000144999999492  -0.999999989487500       4802

   6 -1  0   1000.000    0.001  0.001  0.001   0.000000000000000  -0.000144999999492   0.999999989487500       4901
   6 -1  0   1000.000    0.001  0.001  0.001   0.000000000000000  -0.000144999999492  -0.999999989487500       4902

   6 -1  0   1000.000    0.001  0.001  0.001   0.000000000000000  -0.000144999999492   0.999999989487500       5001
   6 -1  0   1000.000    0.001  0.001  0.001   0.000000000000000  -0.000144999999492  -0.999999989487500       5002

   6 -1  0   1000.000    0.001  0.001  0.001   0.000000000000000  -0.000144999999492   0.999999989487500       5101
   6 -1  0   1000.000    0.001  0.001  0.001   0.000000000000000  -0.000144999999492  -0.999999989487500       5102

   6 -1  0   1000.000    0.001  0.001  0.001   0.000000000000000  -0.000144999999492   0.999999989487500       5201
   6 -1  0   1000.000    0.001  0.001  0.001   0.000000000000000  -0.000144999999492  -0.999999989487500       5202

   6 -1  0   1000.000    0.001  0.001  0.001   0.000000000000000  -0.000144999999492   0.999999989487500       5301
   6 -1  0   1000.000    0.001  0.001  0.001   0.000000000000000  -0.000144999999492  -0.999999989487500       5302

   6 -1  0   1000.000    0.001  0.001  0.001   0.000000000000000  -0.000144999999492   0.999999989487500       5401
   6 -1  0   1000.000    0.001  0.001  0.001   0.000000000000000  -0.000144999999492  -0.999999989487500       5402

   6 -1  0   1000.000    0.001  0.001  0.001   0.000000000000000  -0.000144999999492   0.999999989487500       5501
   6 -1  0   1000.000    0.001  0.001  0.001   0.000000000000000  -0.000144999999492  -0.999999989487500       5502

   6 -1  0   1000.000    0.001  0.001  0.001   0.000000000000000  -0.000144999999492   0.999999989487500       5601
   6 -1  0   1000.000    0.001  0.001  0.001   0.000000000000000  -0.000144999999492  -0.999999989487500       5602

   6 -1  0   1000.000    0.001  0.001  0.001   0.000000000000000  -0.000144999999492   0.999999989487500       5701
   6 -1  0   1000.000    0.001  0.001  0.001   0.000000000000000  -0.000144999999492  -0.999999989487500       5702

   6 -1  0   1000.000    0.001  0.001  0.001   0.000000000000000  -0.000144999999492   0.999999989487500       5801
   6 -1  0   1000.000    0.001  0.001  0.001   0.000000000000000  -0.000144999999492  -0.999999989487500       5802

   6 -1  0   1000.000    0.001  0.001  0.001   0.000000000000000  -0.000144999999492   0.999999989487500       5901
   6 -1  0   1000.000    0.001  0.001  0.001   0.000000000000000  -0.000144999999492  -0.999999989487500       5902

   6 -1  0   1000.000    0.001  0.001  0.001   0.000000000000000  -0.000144999999492   0.999999989487500       6001
   6 -1  0   1000.000    0.001  0.001  0.001   0.000000000000000  -0.000144999999492  -0.999999989487500       6002

   6 -1  0   1000.000    0.001  0.001  0.001   0.000000000000000  -0.000144999999492   0.999999989487500       6101
   6 -1  0   1000.000    0.001  0.001  0.001   0.000000000000000  -0.000144999999492  -0.999999989487500       6102

   6 -1  0   1000.000    0.001  0.001  0.001   0.000000000000000  -0.000144999999492   0.999999989487500       6201
   6 -1  0   1000.000    0.001  0.001  0.001   0.000000000000000  -0.000144999999492  -0.999999989487500       6202

   6 -1  0   1000.000    0.001  0.001  0.001   0.000000000000000  -0.000144999999492   0.999999989487500       6301
   6 -1  0   1000.000    0.001  0.001  0.001   0.000000000000000  -0.000144999999492  -0.999999989487500       6302

   6 -1  0   1000.000    0.001  0.001  0.001   0.000000000000000  -0.000144999999492   0.999999989487500       6401
   6 -1  0   1000.000    0.001  0.001  0.001   0.000000000000000  -0.000144999999492  -0.999999989487500       6402

   6 -1  0   1000.000    0.001  0.001  0.001   0.000000000000000  -0.000144999999492   0.999999989487500       6501
   6 -1  0   1000.000    0.001  0.001  0.001   0.000000000000000  -0.000144999999492  -0.999999989487500       6502

   6 -1  0   1000.000    0.001  0.001  0.001   0.000000000000000  -0.000144999999492   0.999999989487500       6601
   6 -1  0   1000.000    0.001  0.001  0.001   0.000000000000000  -0.000144999999492  -0.999999989487500       6602

   6 -1  0   1000.000    0.001  0.001  0.001   0.000000000000000  -0.000144999999492   0.999999989487500       6701
   6 -1  0   1000.000    0.001  0.001  0.001   0.000000000000000  -0.000144999999492  -0.999999989487500       6702

   6 -1  0   1000.000    0.001  0.001  0.001   0.000000000000000  -0.000144999999492   0.999999989487500       6801
   6 -1  0   1000.000    0.001  0.001  0.001   0.000000000000000  -0.000144999999492  -0.999999989487500       6802

   6 -1  0   1000.000    0.001  0.001  0.001   0.000000000000000  -0.000144999999492   0.999999989487500       6901
   6 -1  0   1000.000    0.001  0.001  0.001   0.000000000000000  -0.000144999999492  -0.999999989487500       6902

   6 -1  0   1000.000    0.001  0.001  0.001   0.000000000000000  -0.000144999999492   0.999999989487500       7001
   6 -1  0   1000.000    0.001  0.001  0.001   0.000000000000000  -0.000144999999492  -0.999999989487500       7002

   6 -1  0   1000.000    0.001  0.001  0.001   0.000000000000000  -0.000144999999492   0.999999989487500       7101
   6 -1  0   1000.000    0.001  0.001  0.001   0.000000000000000  -0.000144999999492  -0.999999989487500       7102

   6 -1  0   1000.000    0.001  0.001  0.001   0.000000000000000  -0.000144999999492   0.999999989487500       7201
   6 -1  0   1000.000    0.001  0.001  0.001   0.000000000000000  -0.000144999999492  -0.999999989487500       7202

   6 -1  0   1000.000    0.001  0.001  0.001   0.000000000000000  -0.000144999999492   0.999999989487500       7301
   6 -1  0   1000.000    0.001  0.001  0.001   0.000000000000000  -0.000144999999492  -0.999999989487500       7302

   6 -1  0   1000.000    0.001  0.001  0.001   0.000000000000000  -0.000144999999492   0.999999989487500       7401
   6 -1  0   1000.000    0.001  0.001  0.001   0.000000000000000  -0.000144999999492  -0.999999989487500       7402

   6 -1  0   1000.000    0.001  0.001  0.001   0.000000000000000  -0.000144999999492   0.999999989487500       7501
   6 -1  0   1000.000    0.001  0.001  0.001   0.000000000000000  -0.000144999999492  -0.999999989487500       7502

   6 -1  0   1000.000    0.001  0.001  0.001   0.000000000000000  -0.000144999999492   0.999999989487500       7601
   6 -1  0   1000.000    0.001  0.001  0.001   0.000000000000000  -0.000144999999492  -0.999999989487500       7602

   6 -1  0   1000.000    0.001  0.001  0.001   0.000000000000000  -0.000144999999492   0.999999989487500       7701
   6 -1  0   1000.000    0.001  0.001  0.001   0.000000000000000  -0.000144999999492  -0.999999989487500       7702

   6 -1  0   1000.000    0.001  0.001  0.001   0.000000000000000  -0.000144999999492   0.999999989487500       7801
   6 -1  0   1000.000    0.001  0.001  0.001   0.000000000000000  -0.000144999999492  -0.999999989487500       7802

   6 -1  0   1000.000    0.001  0.001  0.001   0.000000000000000  -0.000144999999492   0.999999989487500       7901
   6 -1  0   1000.000    0.001  0.001  0.001   0.000000000000000  -0.000144999999492  -0.999999989487500       7902

   6 -1  0   1000.000    0.001  0.001  0.001   0.000000000000000  -0.000144999999492   0.999999989487500       8001
   6 -1  0   1000.000    0.001  0.001  0.001   0.000000000000000  -0.000144999999492  -0.999999989487500       8002

   6 -1  0   1000.000    0.001  0.001  0.001   0.000000000000000  -0.000144999999492   0.999999989487500       8101
   6 -1  0   1000.000    0.001  0.001  0.001   0.000000000000000  -0.000144999999492  -0.999999989487500       8102

   6 -1  0   1000.000    0.001  0.001  0.001   0.000000000000000  -0.000144999999492   0.999999989487500       8201
   6 -1  0   1000.000    0.001  0.001  0.001   0.000000000000000  -0.000144999999492  -0.999999989487500       8202

   6 -1  0   1000.000    0.001  0.001  0.001   0.000000000000000  -0.000144999999492   0.999999989487500       8301
   6 -1  0   1000.000    0.001  0.001  0.001   0.000000000000000  -0.000144999999492  -0.999999989487500       8302

   6 -1  0   1000.000    0.001  0.001  0.001   0.000000000000000  -0.000144999999492   0.999999989487500       8401
   6 -1  0   1000.000    0.001  0.001  0.001   0.000000000000000  -0.000144999999492  -0.999999989487500       8402

   6 -1  0   1000.000    0.001  0.001  0.001   0.000000000000000  -0.000144999999492   0.999999989487500       8501
   6 -1  0   1000.000    0.001  0.001  0.001   0.000000000000000  -0.000144999999492  -0.999999989487500       8502

   6 -1  0   1000.000    0.001  0.001  0.001   0.000000000000000  -0.000144999999492   0.999999989487500       8601
   6 -1  0   1000.000    0.001  0.001  0.001   0.000000000000000  -0.000144999999492  -0.999999989487500       8602

   6 -1  0   1000.000    0.001  0.001  0.001   0.000000000000000  -0.000144999999492   0.999999989487500       8701
   6 -1  0   1000.000    0.001  0.001  0.001   0.000000000000000  -0.000144999999492  -0.999999989487500       8702

   6 -1  0   1000.000    0.001  0.001  0.001   0.000000000000000  -0.000144999999492   0.999999989487500       8801
   6 -1  0   1000.000    0.001  0.001  0.001   0.000000000000000  -0.000144999999492  -0.999999989487500       8802

   6 -1  0   1000.000    0.001  0.001  0.001   0.000000000000000  -0.000144999999492   0.999999989487500       8901
   6 -1  0   1000.000    0.001  0.001  0.001   0.000000000000000  -0.000144999999492  -0.999999989487500       8902

   6 -1  0   1000.000    0.001  0.001  0.001   0.000000000000000  -0.000144999999492   0.999999989487500       9001
   6 -1  0   1000.000    0.001  0.001  0.001   0.000000000000000  -0.000144999999492  -0.999999989487500       9002

   6 -1  0   1000.000    0.001  0.001  0.001   0.000000000000000  -0.000144999999492   0.999999989487500       9101
   6 -1  0   1000.000    0.001  0.001  0.001   0.000000000000000  -0.000144999999492  -0.999999989487500       9102

   6 -1  0   1000.000    0.001  0.001  0.001   0.000000000000000  -0.000144999999492   0.999999989487500       9201
   6 -1  0   1000.000    0.001  0.001  0.001   0.000000000000000  -0.000144999999492  -0.999999989487500       9202

   6 -1  0   1000.000    0.001  0.001  0.001   0.000000000000000  -0.000144999999492   0.999999989487500       9301
   6 -1  0   1000.000    0.001  0.001  0.001   0.000000000000000  -0.000144999999492  -0.999999989487500       9302

   6 -1  0   1000.000    0.001  0.001  0.001   0.000000000000000  -0.000144999999492   0.999999989487500       9401
   6 -1  0   1000.000    0.001  0.001  0.001   0.000000000000000  -0.000144999999492  -0.999999989487500       9402

   6 -1  0   1000.000    0.001  0.001  0.001   0.000000000000000  -0.000144999999492   0.999999989487500       9501
   6 -1  0   1000.000    0.001  0.001  0.001   0.000000000000000  -0.000144999999492  -0.999999989487500       9502

   6 -1  0   1000.000    0.001  0.001  0.001   0.000000000000000  -0.000144999999492   0.999999989487500       9601
   6 -1  0   1000.000    0.001  0.001  0.001   0.000000000000000  -0.000144999999492  -0.999999989487500       9602

   6 -1  0   1000.000    0.001  0.001  0.001   0.000000000000000  -0.000144999999492   0.999999989487500       9701
   6 -1  0   1000.000    0.001  0.001  0.001   0.000000000000000  -0.000144999999492  -0.999999989487500       9702

   6 -1  0   1000.000    0.001  0.001  0.001   0.000000000000000  -0.000144999999492   0.999999989487500       9801
   6 -1  0   1000.000    0.001  0.001  0.001   0.000000000000000  -0.000144999999492  -0.999999989487500       9802

   6 -1  0   1000.000    0.001  0.001  0.001   0.000000000000000  -0.000144999999492   0.999999989487500       9901
   6 -1  0   1000.000    0.001  0.001  0.001   0.000000000000000  -0.000144999999492  -0.999999989487500       9902

